Division,WeightClassKg,Place,Name,Team,BodyweightKg,Best3SquatKg,Best3BenchKg,Best3DeadliftKg,TotalKg,Equipment,Event,Sex
Girls,44.23,1,Ana Granados,Crystal City,44.18,108.86,52.16,102.06,263.08,Single-ply,SBD,F
Girls,44.23,2,Celeste Correa,Carrizo Springs,42.91,108.86,38.56,111.13,258.55,Single-ply,SBD,F
Girls,44.23,3,Gabby Riojas,Carrizo Springs,42.27,88.45,38.56,95.25,222.26,Single-ply,SBD,F
Girls,44.23,4,Natalie Garza,Dilley,40.82,81.65,31.75,92.99,206.38,Single-ply,SBD,F
Girls,44.23,5,Ariana Reyes,Uvalde,43.27,79.38,27.22,79.38,185.97,Single-ply,SBD,F
Girls,44.23,6,Cardenas Joshlyn,Uvalde,42.64,72.57,31.75,72.57,176.9,Single-ply,SBD,F
Girls,44.23,7,Iyesha Trevino,Knippa,44.18,47.63,27.22,54.43,129.27,Single-ply,SBD,F
Girls,44.23,DQ,Michelle Paredes,Carrizo Springs,44,77.11,,,,Single-ply,SBD,F
Girls,47.85,1,Aaliyah Garcia,Crystal City,47.45,145.15,74.84,133.81,353.8,Single-ply,SBD,F
Girls,47.85,2,Alamar Garcia,Pearsall,46.9,129.27,56.7,111.13,297.1,Single-ply,SBD,F
Girls,47.85,3,Devany Rayna,Pearsall,47.81,95.25,36.29,99.79,231.33,Single-ply,SBD,F
Girls,47.85,4,Lori Mendez,Carrizo Springs,46.54,72.57,36.29,95.25,204.12,Single-ply,SBD,F
Girls,47.85,5,Mia Martinez,Uvalde,46.63,61.23,29.48,72.57,163.29,Single-ply,SBD,F
Girls,51.94,1,Kristal Rodriguez,Dilley,51.53,104.33,74.84,113.4,292.57,Single-ply,SBD,F
Girls,51.94,2,Kaylee Garza,Cotulla,47.99,102.06,52.16,136.08,290.3,Single-ply,SBD,F
Girls,51.94,3,Virginia Gallegos,Carrizo Springs,51.8,108.86,43.09,127.01,278.96,Single-ply,SBD,F
Girls,51.94,4,Nelli Martinez,Crystal City,51.71,104.33,61.23,111.13,276.69,Single-ply,SBD,F
Girls,51.94,5,Jaslyn Ochoa,Dilley,50.53,106.59,45.36,115.67,267.62,Single-ply,SBD,F
Girls,51.94,6,Crystal Hernandez,Pearsall,49.62,102.06,40.82,99.79,242.67,Single-ply,SBD,F
Girls,51.94,7,Alessandra Valdes,Carrizo Springs,50.71,95.25,43.09,104.33,242.67,Single-ply,SBD,F
Girls,51.94,8,Veronica Martinez,Crystal City,50.35,90.72,43.09,102.06,235.87,Single-ply,SBD,F
Girls,51.94,9,Erina Garca,Knippa,48.63,90.72,45.36,92.99,229.06,Single-ply,SBD,F
Girls,51.94,10,Ivanna Olivarez,Crystal City,48.99,90.72,34.02,97.52,222.26,Single-ply,SBD,F
Girls,51.94,11,Blanca Muniz,Dilley,51.17,88.45,40.82,92.99,222.26,Single-ply,SBD,F
Girls,51.94,12,Jodycee Trujillo,Carrizo Springs,50.8,79.38,43.09,92.99,215.46,Single-ply,SBD,F
Girls,51.94,13,Joshlynn Saucedo,Knippa,51.17,65.77,27.22,72.57,165.56,Single-ply,SBD,F
Girls,51.94,14,Bobbi Ligocky,Knippa,51.35,58.97,36.29,61.23,156.49,Single-ply,SBD,F
Girls,56.02,1,Gabby Moncada,Crystal City,55.66,136.08,63.5,120.2,319.78,Single-ply,SBD,F
Girls,56.02,2,Kaylee Longoria,Carrizo Springs,55.16,99.79,52.16,113.4,265.35,Single-ply,SBD,F
Girls,56.02,3,Nimue Amaya,Pearsall,53.43,106.59,54.43,102.06,263.08,Single-ply,SBD,F
Girls,56.02,4,Klarissa Sonora,Uvalde,53.98,95.25,43.09,104.33,242.67,Single-ply,SBD,F
Girls,56.02,5,Ariana Perez,Uvalde,55.16,97.52,45.36,95.25,238.14,Single-ply,SBD,F
Girls,56.02,6,Johscelynn Garcia,Crystal City,55.79,81.65,29.48,86.18,197.31,Single-ply,SBD,F
Girls,56.02,DQ,Destiny Gonzales,Crystal City,54.43,79.38,,,,Single-ply,SBD,F
Girls,60.1,1,America Fernandez,Somerset,58.51,158.76,104.33,136.08,399.16,Single-ply,SBD,F
Girls,60.1,2,Jennifer Montellano,Crystal City,60.1,151.95,86.18,124.74,362.87,Single-ply,SBD,F
Girls,60.1,3,Rosie Martinez,Crystal City,59.96,145.15,61.23,136.08,342.46,Single-ply,SBD,F
Girls,60.1,4,Rochelle Orosco,Carrizo Springs,59.15,120.2,58.97,115.67,294.84,Single-ply,SBD,F
Girls,60.1,5,Anamarie Rodriguez,Dilley,58.97,113.4,47.63,113.4,274.42,Single-ply,SBD,F
Girls,60.1,6,Priscilla Jimenez,Somerset,56.52,104.33,54.43,97.52,256.28,Single-ply,SBD,F
Girls,60.1,7,Linda Vasquez,Pearsall,56.61,88.45,43.09,102.06,233.6,Single-ply,SBD,F
Girls,60.1,8,Hailey Medrano,Pearsall,57.79,74.84,36.29,88.45,199.58,Single-ply,SBD,F
Girls,60.1,DQ,Elyssa Aguilar,Dilley,59.33,,,,,Single-ply,SBD,F
Girls,60.1,DQ,Mikayla Solis,Pearsall,58.51,,,,,Single-ply,SBD,F
Girls,67.36,1,Stephanie Benavidez,Cotulla,60.42,161.03,70.31,145.15,376.48,Single-ply,SBD,F
Girls,67.36,2,Alyssa Lombrana,Crystal City,66.68,131.54,70.31,138.35,340.19,Single-ply,SBD,F
Girls,67.36,3,Laura Puente,Carrizo Springs,66.22,133.81,52.16,129.27,315.25,Single-ply,SBD,F
Girls,67.36,4,Janeaveh Rodriguez,Cotulla,65.05,115.67,74.84,108.86,299.37,Single-ply,SBD,F
Girls,67.36,5,Zenestina Perez,Dilley,61.96,108.86,49.9,127.01,285.76,Single-ply,SBD,F
Girls,67.36,6,Samara Gandara,Pearsall,63.87,108.86,47.63,124.74,281.23,Single-ply,SBD,F
Girls,67.36,7,Madalynn Armendarez,Crystal City,63.5,90.72,56.7,124.74,272.16,Single-ply,SBD,F
Girls,67.36,8,Makayla Jasso,Pearsall,66.77,99.79,47.63,99.79,247.21,Single-ply,SBD,F
Girls,67.36,9,Oceana Cooper,Crystal City,64.68,86.18,47.63,104.33,238.14,Single-ply,SBD,F
Girls,67.36,10,JoAnn Navarro,Uvalde,64.59,88.45,34.02,104.33,226.8,Single-ply,SBD,F
Girls,67.36,11,Brendela Alvalos,Carrizo Springs,65.86,79.38,45.36,83.91,208.65,Single-ply,SBD,F
Girls,67.36,DQ,Wakana Ido,Dilley,62.14,,,,,Single-ply,SBD,F
Girls,67.36,DQ,Hailey Young,Dilley,61.23,,,,,Single-ply,SBD,F
Girls,67.36,DQ,Kelsey Garcia,Uvalde,67.22,111.13,,,,Single-ply,SBD,F
Girls,75.07,1,Avery Contreras,Uvalde,74.66,156.49,63.5,140.61,360.61,Single-ply,SBD,F
Girls,75.07,2,Eloisa Garza,Somerset,74.39,145.15,81.65,122.47,349.27,Single-ply,SBD,F
Girls,75.07,3,Lexi Ramirez,Dilley,73.39,142.88,54.43,136.08,333.39,Single-ply,SBD,F
Girls,75.07,4,Carolina Rico,Somerset,74.12,149.69,79.38,102.06,331.12,Single-ply,SBD,F
Girls,75.07,5,Marissa Ramirez #3,Crystal City,71.21,136.08,45.36,106.59,288.03,Single-ply,SBD,F
Girls,75.07,6,Kimberly Frausto,Pearsall,75.02,108.86,47.63,127.01,283.5,Single-ply,SBD,F
Girls,75.07,7,Andrea Castillo,Carrizo Springs,71.67,122.47,45.36,108.86,276.69,Single-ply,SBD,F
Girls,75.07,8,Aaliyah Pena,Crystal City,68.95,102.06,40.82,90.72,233.6,Single-ply,SBD,F
Girls,75.07,9,Iliana Ramirez,Crystal City,72.57,83.91,36.29,92.99,213.19,Single-ply,SBD,F
Girls,75.07,DQ,Destiny DeLeon,Knippa,72.67,90.72,49.9,,,Single-ply,SBD,F
Girls,82.33,1,Giana Rios,Crystal City,80.29,172.37,74.84,163.29,410.5,Single-ply,SBD,F
Girls,82.33,2,Destiny Sepulveda,Crystal City,81.19,145.15,97.52,131.54,374.21,Single-ply,SBD,F
Girls,82.33,3,Ariana Camarillo,Carrizo Springs,76.48,154.22,65.77,147.42,367.41,Single-ply,SBD,F
Girls,82.33,4,Jocelyn Bustamante,Uvalde,79.92,156.49,63.5,136.08,356.07,Single-ply,SBD,F
Girls,82.33,5,Daniela Quintero,Cotulla,82.28,138.35,77.11,127.01,342.46,Single-ply,SBD,F
Girls,82.33,6,Isanelli Escamilla,Crystal City,81.28,145.15,65.77,124.74,335.66,Single-ply,SBD,F
Girls,82.33,7,Sarina Ramirez,Crystal City,76.38,92.99,45.36,92.99,231.33,Single-ply,SBD,F
Girls,90.04,1,Illea Lugo,Somerset,85.73,215.46,111.13,149.69,476.27,Single-ply,SBD,F
Girls,90.04,2,Alyssa Alva,Pearsall,89.27,201.85,86.18,174.63,462.66,Single-ply,SBD,F
Girls,90.04,3,Maria Rodguiez,Crystal City,82.55,183.7,102.06,174.63,460.4,Single-ply,SBD,F
Girls,90.04,4,Regina Seidel,Cotulla,89.09,145.15,74.84,142.88,362.87,Single-ply,SBD,F
Girls,90.04,5,Destiny Cox,Crystal City,83.19,124.74,54.43,102.06,281.23,Single-ply,SBD,F
Girls,100.02,1,Bethanie Rodriguez,Crystal City,98.43,217.72,127.01,165.56,510.29,Single-ply,SBD,F
Girls,100.02,2,Kat Villarreal,Crystal City,97.66,124.74,54.43,165.56,344.73,Single-ply,SBD,F
Girls,100.02,3,Zuri Garcia,Cotulla,95.53,106.59,65.77,108.86,281.23,Single-ply,SBD,F
Girls,117.71,1,Luz Garcia,Crystal City,116.03,204.12,81.65,145.15,430.91,Single-ply,SBD,F
Girls,117.71,2,Ashlyn Weikle,Somerset,101.79,174.63,88.45,165.56,428.64,Single-ply,SBD,F
Girls,117.71,3,Victoria Gonzales,Carrizo Springs,103.96,163.29,74.84,136.08,374.21,Single-ply,SBD,F
Girls,117.71,4,Distiny Ramirez,Pearsall,104.87,156.49,72.57,131.54,360.61,Single-ply,SBD,F
Girls,117.71,5,Saylene Torres,Dilley,105.32,108.86,61.23,142.88,312.98,Single-ply,SBD,F
Girls,117.71,DQ,Ariel Rangel,Somerset,114.76,113.4,45.36,,,Single-ply,SBD,F
Girls,117.71+,1,Clarissa Ramirez,Crystal City,121.74,142.88,72.57,113.4,328.85,Single-ply,SBD,F
Girls,117.71+,DQ,Victoria Gonzalez,Cotulla,131.18,226.8,115.67,,,Single-ply,SBD,F
