Name,Sex,Event,Equipment,Division,BodyweightKg,WeightClassKg,Squat1Kg,Squat2Kg,Squat3Kg,Best3SquatKg,Bench1Kg,Bench2Kg,Bench3Kg,Best3BenchKg,Deadlift1Kg,Deadlift2Kg,Deadlift3Kg,Best3DeadliftKg,TotalKg,Place,BirthDate,State
Jasmine Lake,F,SBD,Raw,F-C-Open,45,47,60,65,70,70,57.5,62.5,-65,62.5,80,87.5,-92.5,87.5,220,1,,GL
Helen Quinn,F,SBD,Raw,F-C-Open,50.9,52,77.5,82.5,-87.5,82.5,45,-47.5,47.5,47.5,105,115,-120,115,245,1,,GL
Zainab Hafiji,F,SBD,Raw,F-C-Open,49.5,52,80,-85,87.5,87.5,37.5,40,42.5,42.5,105,112.5,-115,112.5,242.5,2,,GL
Anoula Rayburn,F,SBD,Raw,F-C-Open,50.3,52,75,82.5,85,85,45,-50,50,50,95,100,102.5,102.5,237.5,3,,GL
Talvin Kaur,F,SBD,Raw,F-C-Open,50.4,52,50,-55,55,55,30,35,37.5,37.5,70,75,77.5,77.5,170,4,,GL
Michela Garau,F,SBD,Raw,F-C-Open,55.8,57,112.5,117.5,122.5,122.5,62.5,67.5,70,70,130,135,140,140,332.5,1,,GL
Suzana Sorokova,F,SBD,Raw,F-C-Open,56.4,57,105,112.5,-117.5,112.5,62.5,70,-72.5,70,130,137.5,142.5,142.5,325,2,,GL
Jessica Goodchild,F,SBD,Raw,F-C-Open,55.5,57,100,105,-110,105,52.5,-57.5,60,60,115,122.5,135,135,300,3,,GL
Malena Orlando,F,SBD,Raw,F-C-Open,55.7,57,90,-105,110,110,50,55,-60,55,110,120,-125,120,285,4,,GL
Rebecca Powell,F,SBD,Raw,F-C-Open,56.2,57,80,87.5,90,90,57.5,-65,-65,57.5,87.5,97.5,105,105,252.5,5,,GL
Rebecca Smith #1,F,SBD,Raw,F-C-Open,53.8,57,70,75,80,80,37.5,40,-42.5,40,95,100,107.5,107.5,227.5,6,,GL
Deborah Johansen,F,SBD,Raw,F-C-Open,55.5,57,-70,-70,70,70,-50,50,-55,50,92.5,100,105,105,225,7,,GL
Izzy Webb,F,SBD,Raw,F-C-Open,55.2,57,60,65,67.5,67.5,30,35,40,40,75,82.5,90,90,197.5,8,,GL
Leah Grant,F,SBD,Raw,F-C-Open,62.4,63,130,137.5,,137.5,72.5,77.5,,77.5,155,-165,-165,155,370,1,,GL
Tsatska Enkhbayar,F,SBD,Raw,F-C-Open,62.3,63,110,115,120,120,60,62.5,65,65,122.5,132.5,142.5,142.5,327.5,2,,GL
Vicky Stewart,F,SBD,Raw,F-C-Open,62.8,63,105,-110,112.5,112.5,55,57.5,-60,57.5,110,115,-120,115,285,3,,GL
Helen Hughes #2,F,SBD,Raw,F-C-Open,61.5,63,77.5,82.5,85,85,47.5,50,52.5,52.5,95,102.5,107.5,107.5,245,4,,GL
Clare Lindley,F,SBD,Raw,F-C-Open,61.1,63,60,65,70,70,32.5,35,37.5,37.5,100,110,120,120,227.5,5,,GL
Georgina Mann,F,B,Raw,F-C-Open,61.4,63,,,,,60,65,-67.5,65,,,,,65,1,,GL
Sophie Alexander,F,SBD,Raw,F-C-Open,69.5,72,100,110,115,115,62.5,67.5,-70,67.5,132.5,142.5,-147.5,142.5,325,1,,GL
Isabelle Paterson-Taylor,F,SBD,Raw,F-C-Open,67.6,72,100,105,110,110,52.5,57.5,-60,57.5,125,132.5,137.5,137.5,305,2,,GL
Rozalyn Wilson,F,SBD,Raw,F-C-Open,69.1,72,-100,100,-105,100,-50,50,55,55,115,120,125,125,280,3,,GL
Leanne Moylan,F,SBD,Raw,F-C-Open,70.4,72,90,95,-100,95,50,52.5,-55,52.5,120,127.5,-132.5,127.5,275,4,,GL
Anna Lambert,F,SBD,Raw,F-C-Open,64.4,72,90,95,100,100,-47.5,47.5,50,50,110,117.5,122.5,122.5,272.5,5,,GL
Kathryn MacTaggart,F,SBD,Raw,F-C-Open,71.7,72,-97.5,97.5,105,105,37.5,40,42.5,42.5,110,117.5,122.5,122.5,270,6,,GL
Shirou Masoodi,F,SBD,Raw,F-C-Open,69.2,72,80,87.5,92.5,92.5,40,45,50,50,100,107.5,112.5,112.5,255,7,,GL
Angel Araujo,F,SBD,Raw,F-C-Open,64.6,72,75,80,85,85,-35,35,40,40,100,115,125,125,250,8,,GL
Tammy Parlour,F,SBD,Raw,F-C-Open,71.7,72,57.5,62.5,65,65,-40,-40,45,45,95,100,107.5,107.5,217.5,9,,GL
Temitope Nuga,F,SBD,Raw,F-C-Open,83,84,130,140,150,150,70,75,80,80,130,160,190,190,420,1,,GL
Nana Agyemang,F,SBD,Raw,F-C-Open,80.6,84,-100,100,-105,100,62.5,65,67.5,67.5,145,150,-160,150,317.5,2,,GL
Mariam Mahmou,F,SBD,Raw,F-C-Open,80,84,97.5,107.5,112.5,112.5,55,60,62.5,62.5,120,130,135,135,310,3,,GL
Kate Rooney,F,SBD,Raw,F-C-Open,82.5,84,-97.5,102.5,-107.5,102.5,65,70,72.5,72.5,120,127.5,132.5,132.5,307.5,4,,GL
Anna-Marie Steadman,F,SBD,Raw,F-C-Open,82.5,84,85,90,92.5,92.5,37.5,40,42.5,42.5,105,110,115,115,250,5,,GL
Jennifer Shaw,F,SBD,Raw,F-C-Open,77.3,84,-135,-145,-145,,65,70,-72.5,70,130,140,145,145,,DQ,,GL
Diana Eleuterio,F,SBD,Raw,F-C-Open,84.3,84+,-110,-110,110,110,47.5,50,52.5,52.5,120,130,135,135,297.5,1,,GL
Richard Twycross-Lewis,M,B,Raw,M-C-Open,104,105,,,,,155,160,162.5,162.5,,,,,162.5,1,,GL
Julian Massey,M,B,Raw,M-C-Open,108.5,120,,,,,105,,,105,,,,,105,1,,GL
Charlie Keen,M,B,Single-ply,M-E-Open,91,93,,,,,155,-165,-165,155,,,,,155,1,,GL
Atharva Tere,M,SBD,Raw,M-C-Open,58.4,59,92.5,95,100,100,65,70,72.5,72.5,132.5,142.5,147.5,147.5,320,1,,GL
Ravi Sharma,M,SBD,Raw,M-C-Open,64.6,66,115,125,-130,125,100,107.5,-112.5,107.5,190,200,210,210,442.5,1,,GL
Michael Humphries,M,SBD,Raw,M-C-Open,72.2,74,180,192.5,-195,192.5,107.5,-115,-117.5,107.5,210,225,-232.5,225,525,1,,GL
Adam Holmes,M,SBD,Raw,M-C-Open,69.7,74,155,165,170,170,110,117.5,-120,117.5,-195,205,212.5,212.5,500,2,,GL
Xhesi Cekrezi,M,SBD,Raw,M-C-Open,73.3,74,157.5,165,172.5,172.5,95,100,105,105,220,-235,-235,220,497.5,3,,GL
Saqib Javaid,M,SBD,Raw,M-C-Open,70,74,97.5,105,112.5,112.5,65,70,75,75,105,120,135,135,322.5,4,,GL
Jack Anslow,M,SBD,Raw,M-C-Open,81.7,83,165,175,182.5,182.5,130,137.5,-142.5,137.5,210,230,235,235,555,1,,GL
Thomas Mans,M,SBD,Raw,M-C-Open,79.1,83,160,170,180,180,117.5,125,130,130,210,225,230,230,540,2,,GL
Don Demetrius,M,SBD,Raw,M-C-Open,81.1,83,162.5,172.5,-175,172.5,112.5,120,125,125,200,210,215,215,512.5,3,,GL
Lukas Dudenas,M,SBD,Raw,M-C-Open,82.3,83,170,-175,-175,170,110,-115,-115,110,195,202.5,207.5,207.5,487.5,4,,GL
Saleem Painchun,M,SBD,Raw,M-C-Open,82.4,83,150,160,165,165,90,95,102.5,102.5,160,172.5,180,180,447.5,5,,GL
Kam Lee,M,SBD,Raw,M-C-Open,83,83,125,135,140,140,105,115,120,120,155,162.5,170,170,430,6,,GL
Thomas Gilbert,M,SBD,Raw,M-C-Open,75.1,83,115,125,130,130,95,100,102.5,102.5,162.5,170,-180,170,402.5,7,,GL
Emils Solmanis,M,SBD,Raw,M-C-Open,81.8,83,-130,130,140,140,70,75,80,80,160,172.5,-180,172.5,392.5,8,,GL
Rino Shala,M,SBD,Raw,M-C-Open,88,93,-190,197.5,210,210,125,130,132.5,132.5,230,245,260,260,602.5,1,,GL
Ivan Otim,M,SBD,Raw,M-C-Open,92.5,93,180,-192.5,-195,180,110,115,-120,115,240,257.5,265,265,560,2,,GL
Andrew Komarnycky,M,SBD,Raw,M-C-Open,88.2,93,170,177.5,180,180,120,127.5,-132.5,127.5,215,227.5,232.5,232.5,540,3,,GL
Michal Strzelecki,M,SBD,Raw,M-C-Open,87.8,93,165,175,-182.5,175,127.5,132.5,-137.5,132.5,-190,190,200,200,507.5,4,,GL
Andrea Sperini,M,SBD,Raw,M-C-Open,89.5,93,160,165,170,170,115,117.5,120,120,205,212.5,-215,212.5,502.5,5,,GL
Louis Pike,M,SBD,Raw,M-C-Open,104.1,105,225,235,242.5,242.5,122.5,127.5,130,130,245,260,267.5,267.5,640,1,,GL
Carl Raghavan,M,SBD,Raw,M-C-Open,101.3,105,215,230,240,240,130,142.5,145,145,225,240,250,250,635,2,,GL
Paul Olowogboye,M,SBD,Raw,M-C-Open,102.7,105,-200,215,225,225,125,-130,132.5,132.5,220,230,245,245,602.5,3,,GL
Alex Kinnane,M,SBD,Raw,M-C-Open,105,105,170,177.5,-182.5,177.5,127.5,132.5,-137.5,132.5,240,250,260,260,570,4,,GL
Tony Berongoy,M,SBD,Raw,M-C-Open,94.5,105,172.5,182.5,190,190,-117.5,125,132.5,132.5,205,220,232.5,232.5,555,5,,GL
Kieran Stubbings,M,SBD,Raw,M-C-Open,102.1,105,180,190,-200,190,120,-122.5,-122.5,120,200,205,,205,515,6,,GL
Darren Boness,M,SBD,Raw,M-C-Open,104,105,185,187.5,-200,187.5,-115,,,,-220,,,,,DQ,,GL
Mohammad Koubeissi,M,SBD,Raw,M-C-Open,122.8,120+,222.5,235,247.5,247.5,145,155,162.5,162.5,257.5,272.5,290,290,700,1,1985-09-20,GL
Isaac Ugen,M,SBD,Raw,M-C-Open,129,120+,150,170,185,185,130,140,-145,140,210,225,230,230,555,2,,GL
Alexander Petrenco,M,SBD,Single-ply,M-E-Open,92.3,93,275,-285,285,285,132.5,135,-137.5,135,-250,260,-272.5,260,680,1,,GL
