Division,WeightClassKg,Place,Name,Team,BodyweightKg,Best3SquatKg,Best3BenchKg,Best3DeadliftKg,TotalKg,Equipment,Event,Sex,BirthDate
Boys,51.71,1,Yancy Perkins,Comanche,51.53,108.86,56.7,124.74,290.3,Single-ply,SBD,M,
Boys,51.71,2,Robert Lewellen,Chilton,46.27,88.45,61.23,111.13,260.82,Single-ply,SBD,M,
Boys,51.71,DQ,Jaden Robinson,Stephenville,51.57,,,,,Single-ply,SBD,M,
Boys,55.79,1,Miguel Gallegos,Dublin,55.61,127.01,92.99,158.76,378.75,Single-ply,SBD,M,
Boys,55.79,2,Johnathan Graves,Godley,54.25,104.33,56.7,129.27,290.3,Single-ply,SBD,M,
Boys,55.79,3,Jason Rainbolt,Hamilton,54.79,102.06,56.7,117.93,276.69,Single-ply,SBD,M,
Boys,55.79,4,Ryan Holton,Godley,54.25,102.06,45.36,106.59,254.01,Single-ply,SBD,M,
Boys,55.79,DQ,Jaden Young,Stephenville,55.34,,,,,Single-ply,SBD,M,
Boys,59.87,1,Arnoldo Moreno,Dublin,58.51,138.35,68.04,149.69,356.07,Single-ply,SBD,M,
Boys,59.87,2,Logan Stein,Tolar,59.87,131.54,92.99,120.2,344.73,Single-ply,SBD,M,
Boys,59.87,3,Adam Decorte,Stephenville,58.06,111.13,65.77,120.2,297.1,Single-ply,SBD,M,
Boys,67.13,1,Davin Crouch,Hamilton,65.41,145.15,88.45,149.69,383.29,Single-ply,SBD,M,
Boys,67.13,2,Luke Laursen,Santo,66.68,131.54,79.38,163.29,374.21,Single-ply,SBD,M,
Boys,67.13,3,Trey Pender,Santo,66.95,142.88,74.84,149.69,367.41,Single-ply,SBD,M,
Boys,67.13,4,Santos Matta,Stephenville,60.92,129.27,79.38,151.95,360.61,Single-ply,SBD,M,
Boys,67.13,5,Ben Bruce,Hamilton,64.05,129.27,74.84,156.49,360.61,Single-ply,SBD,M,
Boys,67.13,6,Zach Villareal,Stephenville,62.14,136.08,83.91,136.08,356.07,Single-ply,SBD,M,
Boys,67.13,7,Jake Byrd,Santo,66.22,136.08,61.23,149.69,347,Single-ply,SBD,M,
Boys,67.13,8,Braden Price,Grandview,64.77,129.27,77.11,136.08,342.46,Single-ply,SBD,M,
Boys,67.13,9,Angelo Lewellen,Chilton,63.59,102.06,92.99,136.08,331.12,Single-ply,SBD,M,
Boys,67.13,10,Brayden Newcomb,Santo,66.22,120.2,58.97,127.01,306.17,Single-ply,SBD,M,
Boys,67.13,11,Braeden Strevey,Grandview,61.23,113.4,63.5,124.74,301.64,Single-ply,SBD,M,
Boys,67.13,12,Ruben McPherson,Stephenville,61.69,106.59,74.84,113.4,294.84,Single-ply,SBD,M,
Boys,74.84,1,Kolby Bartlett,Godley,72.94,204.12,102.06,183.7,489.88,Single-ply,SBD,M,
Boys,74.84,2,Stephen Fritz,Lingleville,69.58,170.1,102.06,174.63,446.79,Single-ply,SBD,M,
Boys,74.84,3,Sam Henderson #1,Santo,73.94,154.22,104.33,167.83,426.38,Single-ply,SBD,M,
Boys,74.84,4,Cale Gilmer,Godley,74.84,161.03,90.72,174.63,426.38,Single-ply,SBD,M,
Boys,74.84,5,Colby Farquhar,Santo,69.49,154.22,90.72,156.49,401.43,Single-ply,SBD,M,
Boys,74.84,6,Louis Fernandez,Chilton,72.76,129.27,92.99,170.1,392.36,Single-ply,SBD,M,
Boys,74.84,7,Alex Thele,Hamilton,67.59,145.15,74.84,167.83,387.82,Single-ply,SBD,M,
Boys,74.84,8,Kyler Eudy,Stephenville,68.95,151.95,86.18,149.69,387.82,Single-ply,SBD,M,
Boys,74.84,9,CJ DeLeon,Hamilton,74.3,120.2,74.84,142.88,337.93,Single-ply,SBD,M,
Boys,74.84,10,Damiyon Stevens,Godley,70.22,124.74,65.77,120.2,310.71,Single-ply,SBD,M,
Boys,74.84,11,Jacob Young #3,Hamilton,72.21,113.4,58.97,124.74,297.1,Single-ply,SBD,M,
Boys,74.84,12,Dawson Lunsford,Godley,72.03,,79.38,,79.38,Single-ply,B,M,
Boys,74.84,DQ,Brodee Pack,Stephenville,71.3,151.95,,,,Single-ply,SBD,M,
Boys,74.84,DQ,Jasen Stephens,Tolar,74.84,,,,,Single-ply,SBD,M,
Boys,82.1,1,Ruben Reyes,Stephenville,81.01,199.58,129.27,213.19,542.04,Single-ply,SBD,M,
Boys,82.1,2,Stuart Cortez,Dublin,82.1,190.51,133.81,199.58,523.9,Single-ply,SBD,M,
Boys,82.1,3,Luis Ordoñez,Dublin,77.47,163.29,113.4,206.38,483.08,Single-ply,SBD,M,
Boys,82.1,4,Mathew Wilke,Brock,80.56,181.44,104.33,163.29,449.06,Single-ply,SBD,M,
Boys,82.1,5,Brock Owens,Tolar,77.11,142.88,108.86,156.49,408.23,Single-ply,SBD,M,
Boys,82.1,6,Samuel Coats,Grandview,81.74,145.15,81.65,167.83,394.63,Single-ply,SBD,M,
Boys,82.1,7,Miguel Barron,Chilton,80.65,133.81,83.91,145.15,362.87,Single-ply,SBD,M,
Boys,89.81,1,Johnny Jurado,Dublin,88.99,233.6,136.08,235.87,605.55,Single-ply,SBD,M,
Boys,89.81,2,Braegen Berry,Tolar,88.9,226.8,138.35,219.99,585.13,Single-ply,SBD,M,
Boys,89.81,3,Caleb Smith,Stephenville,89.63,199.58,140.61,210.92,551.11,Single-ply,SBD,M,
Boys,89.81,4,Corrin Hill,Comanche,83.73,195.04,97.52,201.85,494.42,Single-ply,SBD,M,
Boys,89.81,5,Alex DeLeon,Stephenville,84.96,183.7,106.59,170.1,460.4,Single-ply,SBD,M,
Boys,89.81,6,Cade Harris,Brock,88.36,158.76,104.33,172.37,435.45,Single-ply,SBD,M,
Boys,89.81,7,Emmanuel Lugo,Grandview,83.28,167.83,83.91,158.76,410.5,Single-ply,SBD,M,
Boys,89.81,8,Kevin Bowery,Stephenville,85.59,151.95,102.06,154.22,408.23,Single-ply,SBD,M,
Boys,89.81,9,Johnny McClure,Tolar,87.91,156.49,104.33,145.15,405.97,Single-ply,SBD,M,
Boys,89.81,10,Caleb Bayer,Grandview,89.72,147.42,104.33,151.95,403.7,Single-ply,SBD,M,
Boys,89.81,11,Brayden Smith,Santo,83.82,149.69,81.65,149.69,381.02,Single-ply,SBD,M,
Boys,89.81,12,Mason Berry,Tolar,84.73,147.42,88.45,133.81,369.68,Single-ply,SBD,M,
Boys,89.81,13,Damian Ortuno,Lingleville,89.18,102.06,49.9,102.06,254.01,Single-ply,SBD,M,
Boys,99.79,1,Gabe Juarez,Stephenville,97.52,204.12,113.4,222.26,539.77,Single-ply,SBD,M,
Boys,99.79,2,Ethan Clapp,Brock,95.25,195.04,124.74,215.46,535.24,Single-ply,SBD,M,
Boys,99.79,3,Kady Matthews,Brock,91.9,181.44,115.67,195.04,492.15,Single-ply,SBD,M,
Boys,99.79,4,Zach Chavarria,Stephenville,97.07,183.7,106.59,195.04,485.34,Single-ply,SBD,M,
Boys,99.79,5,Caleb Black,Godley,94.08,185.97,86.18,181.44,453.59,Single-ply,SBD,M,
Boys,99.79,6,Landon Clearly,Brock,92.53,174.63,92.99,170.1,437.72,Single-ply,SBD,M,
Boys,99.79,7,Xavier Navarro,Grandview,97.25,181.44,86.18,165.56,433.18,Single-ply,SBD,M,
Boys,99.79,8,Dakota Collins,Tolar,94.26,174.63,106.59,147.42,428.64,Single-ply,SBD,M,
Boys,99.79,9,Joseph McQueen,Brock,93.08,158.76,99.79,165.56,424.11,Single-ply,SBD,M,
Boys,99.79,10,Nundai ZaZueta,Chilton,97.79,165.56,92.99,158.76,417.3,Single-ply,SBD,M,
Boys,99.79,11,Brayden Canada,Grandview,98.52,147.42,79.38,174.63,401.43,Single-ply,SBD,M,
Boys,99.79,12,Gavin Blackmon,Santo,91.44,147.42,81.65,158.76,387.82,Single-ply,SBD,M,
Boys,99.79,13,Ron Ramirez,Hamilton,99.43,156.49,70.31,149.69,376.48,Single-ply,SBD,M,
Boys,99.79,14,Tyler Patton,Stephenville,97.84,136.08,81.65,147.42,365.14,Single-ply,SBD,M,
Boys,99.79,15,Hayden Dixon,Brock,94.35,138.35,83.91,136.08,358.34,Single-ply,SBD,M,
Boys,99.79,16,Lex Laursen,Santo,91.53,127.01,70.31,140.61,337.93,Single-ply,SBD,M,
Boys,99.79,17,Clayton Merrifield,Tolar,99.06,,68.04,117.93,185.97,Single-ply,BD,M,
Boys,99.79,DQ,Dakota Web,Tolar,96.98,136.08,,,,Single-ply,SBD,M,
Boys,99.79,DQ,Dylanjer Meiron,Stephenville,96.34,,,,,Single-ply,SBD,M,
Boys,109.77,1,Bannon Stump,Tolar,100.61,217.72,129.27,219.99,566.99,Single-ply,SBD,M,
Boys,109.77,2,Zack Shivers,Brock,104.78,238.14,129.27,181.44,548.85,Single-ply,SBD,M,
Boys,109.77,3,Jose Najera,Hamilton,108.14,219.99,129.27,185.97,535.24,Single-ply,SBD,M,
Boys,109.77,4,Michael Stanley #1,Dublin,106.23,199.58,142.88,190.51,532.97,Single-ply,SBD,M,
Boys,109.77,5,Cody Miser,Godley,102.24,190.51,113.4,201.85,505.76,Single-ply,SBD,M,
Boys,109.77,6,Mason Butchee,Stephenville,102.33,172.37,138.35,167.83,478.54,Single-ply,SBD,M,
Boys,109.77,7,Damien Meza,Stephenville,108.41,183.7,115.67,170.1,469.47,Single-ply,SBD,M,
Boys,109.77,8,Skyler Lynch,Grandview,104.14,170.1,88.45,136.08,394.63,Single-ply,SBD,M,
Boys,109.77,9,Juan Andrade,Chilton,108.68,142.88,106.59,136.08,385.55,Single-ply,SBD,M,
Boys,109.77,10,Jacob White,Tolar,103.78,158.76,90.72,131.54,381.02,Single-ply,SBD,M,
Boys,109.77,11,Mark Pinon,Chilton,107.14,147.42,65.77,138.35,351.53,Single-ply,SBD,M,
Boys,124.74,1,Tim Zamira,Godley,116.03,254.01,142.88,199.58,596.47,Single-ply,SBD,M,
Boys,124.74,2,Victor Juarez,Dublin,122.92,206.38,136.08,233.6,576.06,Single-ply,SBD,M,
Boys,124.74,3,Adrian Montano,Stephenville,116.8,215.46,120.2,183.7,519.36,Single-ply,SBD,M,
Boys,124.74,4,Julian Ortuno,Lingleville,123.01,204.12,113.4,161.03,478.54,Single-ply,SBD,M,
Boys,124.74,5,Jonathan Kuper,Brock,115.12,181.44,86.18,172.37,439.98,Single-ply,SBD,M,
Boys,124.74+,1,Jacob Bayer,Grandview,145.6,294.84,176.9,242.67,714.41,Single-ply,SBD,M,
Boys,124.74+,2,Logan Davis,Stephenville,131.09,226.8,142.88,238.14,607.81,Single-ply,SBD,M,
Boys,124.74+,3,Collin Black,Godley,132.63,249.48,136.08,204.12,589.67,Single-ply,SBD,M,
Boys,124.74+,4,Matthew Cerda,Stephenville,131.22,215.46,129.27,195.04,539.77,Single-ply,SBD,M,
Boys,124.74+,5,Gavin Sharp,Stephenville,135.17,208.65,124.74,190.51,523.9,Single-ply,SBD,M,
Boys,124.74+,6,Brady Tawwatters,Godley,136.44,188.24,102.06,142.88,433.18,Single-ply,SBD,M,
